
'========================================================================================
' Description : ElfWare Common Routines for reference
'
' Date         Version   Developer       Description
' -----------  --------  -------------   ------------------------------------------------
' 01-Nov-2015  1.00      H Cameron       Initial
' 22-Jan-2016  1.01      H Cameron       1. Move all Mapping logic to this library
'                                        2. Add support for views/materialised views
'                                        3. Add support for non-MS ODBC connections
'                                        4. Add support for table and column comments
' 14-Feb-2016  1.02      H Cameron       1. Add support for table creation
' 16-Feb-2016  1.03      H Cameron       1. Update calls to Elf Utils
'                                        2. Add default to the table in "Source Table/View"
' 26-Feb-2016  1.04      H Cameron       1. Implement script look up from automaton config table
'                                        2. Fix a number of bugs for DJS
' 26-Feb-2016  1.05      H Cameron       1. Correct vlookup for script naming
' 01-Mar-2016  1.06      M Arthur        1. Fixed check constraint on table creation
'                                        2. Added CASE to list of sql constructs
'                                        3. Allowed multiple additional statements (UK/FK etc)
'                                           for DDL separated by a semi-colon and CRLF
' 03-Mar-2016  1.07      M Arthur        1. Fixed up view creation SQL via execute immediate
'                                        2. Formatted create table by removing extra whitespace
' 06-Mar-2016  1.08      H Cameron       1. Backward Compatibility for template type
'                                        2. Fix error with Invalid DB Object in libBuildSheet()
'                                        3. Do Ucase comparison of tablenames to avoide getting duplicates
'                                        4. Introduce the token "elfString:" for data values
' 16-Mar-2016  1.09      M Arthur        1. Added in script comments to the header separated by CRLF
'                                        2. Fixed bad format in view when no where clause defined
' 04-Apr-2016  1.10      M Arthur        1. Allowed for custom header for created scripts. Starting with
'                                           DJS. Created function clientSpecificHeader
' 12-Apr-2016  1.11      M Arthur        1. Fixed up format of default value SYSTIMESTAMP
'========================================================================================

'Mapping type tokens
Const c_mappingToken = "Mapping"
Const c_dynamicToken = "Dynamic"
Const c_staticToken = "Static"
Const c_viewToken = "View"
Const c_matviewToken = "Materialized View"
Const c_tabToken = "Create Table"
Const c_tabAltToken = "Alter Table"
Const c_testToken = "Test"
Const c_offset = "   "

Const c_tmpltMappingToken = "Mapping"
Const c_tmpltDDLToken = "DDL"

Dim gClientCode As String

Dim glibServer As String
Dim glibUsername As String
Dim glibPassword As String
Dim glibConnStr As String


Public Function libCheckLicense(inProduct As String, inClient As String) As Boolean
 
  'Dim datePattern As String
  Dim licDateString As String
  Dim licDate As Date
  Dim licProductName As String
  Dim licClientName As String
  
  'Default licenses
  licClientName = "Unknown Client"
  licDateString = "Never Licensed"
  licDate = #1/1/2015#   '01 Jan 2015
  
  gClientCode = inClient

  If inProduct = "DATACONV" Then
    licProductName = "Data Conversion"
    If inClient = "DJS" Then
      licClientName = "David Jones"
      licDateString = "01-07-2017"
      licDate = #7/1/2017#   '01 Jul 2017
    ElseIf inClient = "ASO" Then
      licDateString = "01-06-2016"
      licDate = #6/1/2016#   '01 Jun 2016
    End If 'Switch on client
  End If 'Switch on Product
  'DateTime.TryParseExact(licDateString, datePattern, Nothing,
  '                                 DateTimeStyles.None, licDate)
  If Date > licDate Then
     MsgBox "Your [" & inClient & "-" & licClientName & "] license for [" & inProduct & "-" & licProductName & "] expired on " & licDateString
     MsgBox "Please contact hamish@elfgrp.com to extend your license"
     libCheckLicense = False
  Else
     'MsgBox "Your license is ok for Client: [" & inClient & "-" & licClientName & "]; Product [" & inProduct & "-" & licProductName & "]"
     libCheckLicense = True
  End If
End Function 'libCheckLicense


Public Sub libOpenConnection(inConn As ADODB.Connection, _
                             inServer As String, _
                             inUser As String, _
                             inPwd As String, _
                             inConnStr As String)
 
  On Error GoTo Exception
  
  Dim conn As ADODB.Connection
  
  Dim i As Integer
  Dim strTmp As String
  Dim Errs1 As Errors
  Dim errLoop As Error
  
  Dim connStr As String
  
  If inConn Is Nothing Then
    Set conn = New ADODB.Connection
    'Making an ODBC connection according to ADO
    'If there is a defined connection string use it, else default to the Microsoft ODBC driver
    connStr = inConnStr
    If connStr = "" Then
      connStr = "driver={Microsoft ODBC for Oracle};" & _
        "server=" + inServer + ";uid=" + inUser + ";pwd=" + inPwd
    End If
    conn.ConnectionString = connStr
  Else
    Set conn = inConn
  End If
'MsgBox "openConnection() cnOra state: " & cnOra.State
'MsgBox "openConnection() cnOra string: " & cnOra.ConnectionString
  If conn.State <> adStateOpen Then
    conn.Open
  End If
  
  Set inConn = conn
  Exit Sub
  
Exception:
       strTmp = strTmp & vbCrLf & "VB Error # " & Str(Err.Number)
       strTmp = strTmp & vbCrLf & "   Generated by " & Err.Source
       strTmp = strTmp & vbCrLf & "   Description  " & Err.Description
  MsgBox "Unable to connect to database, error: " & vbCrLf & Err.Description '& cnOra.Errors(1).Description
       'i = 1
       'On Error Resume Next

       ' Enumerate Errors collection and display properties of
       ' each Error object (if Errors Collection is filled out)
       'Set Errs1 = cnOra.Errors
       'For Each errLoop In Errs1
       ' With errLoop
       '    strTmp = strTmp & vbCrLf & "ADO Error # " & i & ":"
       '    strTmp = strTmp & vbCrLf & "   ADO Error   # " & .Number
       '    strTmp = strTmp & vbCrLf & "   Description   " & .Description
       '    strTmp = strTmp & vbCrLf & "   Source        " & .Source
       '    i = i + 1
       ' End With
       'Next
  
       ' Get VB Error Object's information

       'MsgBox strTmp

       ' Clean up gracefully without risking infinite loop in error handler
       On Error GoTo 0
         
End Sub      'libOpenConnection

Public Sub libCloseConnection(inConn As ADODB.Connection)

  On Error GoTo Exception
  
  If inConn Is Nothing Then
    Exit Sub
  Else
    inConn.Close
    Set inConn = Nothing
  End If

  Exit Sub
  
Exception:
  MsgBox "Error in libCloseConnection(): " '& inConn.Errors(1).Description
  
End Sub 'libCloseConnection

Sub libCopyCredentials()
  glibServer = VBA.Trim(Worksheets("Index").Cells(1, 14).Text) ' Index sheet cell 1N
  glibUsername = VBA.Trim(Worksheets("Index").Cells(1, 16).Text) ' Index sheet cell 1P
  glibPassword = VBA.Trim(Worksheets("Index").Cells(1, 18).Text) ' Index sheet cell 1R
  glibConnStr = VBA.Trim(Worksheets("Index").Cells(1, 20).Text) ' Index sheet cell 1T
End Sub 'libCopyCredentials()

Sub libTestConn()
  Dim conn As ADODB.Connection
  Call libCopyCredentials
  Call libOpenConnection(conn, glibServer, glibUsername, glibPassword, glibConnStr)
  If conn.State = adStateOpen Then
    MsgBox "Connection successful for: " & glibConnStr
  Else
    MsgBox "Unable to connect to: " & glibConnStr
  End If
  Call libCloseConnection(conn)
End Sub

Sub libGenerateRow(inRow As Integer)
  Call libCopyCredentials
  Call libGenerateScript(inRow, ActiveSheet.Cells(inRow, 1).Text)
End Sub 'libGenerateRow()

'Build  mapping worksheet for the table on a given row of index tab
Function libMapRow(inRow As Integer) As Boolean
  libMapRow = libBuildSheet(inRow, UCase(ActiveSheet.Cells(inRow, 1).Text), "D")
End Function 'libMapRow()

Sub libGenerateAll()
  Dim i As Integer
  Dim i_min, i_max As Integer
  
  i_min = 3 ' This is the first row with a table in it
  i_max = 10000 ' Highest row we will process
  
  Call libCopyCredentials
  For i = i_min To i_max
    ' If two consecutive rows are blank (first two columns) then stop
    'If ActiveSheet.Cells(i, 1) = "" And ActiveSheet.Cells(i, 2) = "" And ActiveSheet.Cells(i, 3) = "" And ActiveSheet.Cells(i, 4) = "" And ActiveSheet.Cells(i + 1, 1) = "" And ActiveSheet.Cells(i + 1, 2) = "" And ActiveSheet.Cells(i + 1, 3) = "" And ActiveSheet.Cells(i + 1, 4) = "" Then
    If ActiveSheet.Cells(i, 1) = "" And ActiveSheet.Cells(i, 2) = "" And ActiveSheet.Cells(i + 1, 1) = "" And ActiveSheet.Cells(i + 1, 2) = "" Then
      Exit For
    Else
      Call libGenerateRow(i)
    End If
    
    Next i
    
End Sub 'libGenerateAll()

'================================================================
' Find a worksheet in the Work book
'================================================================
Function libFindSheet(inSheet As String) As Boolean
    Dim sheet_i As Integer
    Dim return_b As Boolean

    return_b = False
    For sheet_i = 1 To ActiveWorkbook.Sheets.Count
      If UCase(Trim(ActiveWorkbook.Sheets(sheet_i).Name)) = UCase(Trim(inSheet)) Then
        ActiveWorkbook.Sheets(sheet_i).Activate
        return_b = True
        Exit For
      End If
    Next sheet_i
    libFindSheet = return_b

End Function 'libFindSheet()

'================================================================
' Find a worksheet in the Work book
'================================================================
Sub libIndexSheet()
  ActiveWorkbook.Sheets("Index").Activate
  Application.ScreenUpdating = True
End Sub

'================================================================
' Create a new automaton (mapping sheet) from an existing one
'================================================================
Function libNewAutomaton(inTemplateType As String, _
                         inAutomaton As String) As String
   Dim sheetExists_b As Boolean
   Dim sheetName_s As String
   Dim templateName_s As String
   
   
   'Determine whether the table already has a mapping
    sheetName_s = inAutomaton
    sheetExists_b = libFindSheet(sheetName_s)
    'if there is a mapping then provide a default sheet
    If sheetExists_b Then
       sheetName_s = "dflt_" & inAutomaton
       sheetExists_b = libFindSheet(sheetName_s)
       If sheetExists_b Then
         MsgBox "Sheets exist for both " & inAutomaton & " and " & sheetName_s & ".  Please delete one or both to enable a new sheet to be created."
         Call libIndexSheet
         libNewAutomaton = ""
         Exit Function
       End If
    End If

    'Create the new Automaton sheet
    If mappingVersion >= "1.02" Then
      Select Case inTemplateType
        Case c_tmpltMappingToken
          templateName_s = "Template"
        Case c_tmpltDDLToken
          templateName_s = "ddlTemplate"
      End Select 'inTemplateType - what type of automaton will this be?
    Else
      templateName_s = "Template"
    End If
    ActiveWorkbook.Sheets(templateName_s).Copy _
    ActiveWorkbook.Sheets(templateName_s)
    ' if this is from the Generate Mappings button (D=Default Mappings) then check if it is there first.
    ' If it is there then create as dflt_
    ActiveSheet.Name = sheetName_s
    
    'Begin moving table name to B1.
    'ActiveSheet.Cells(1, 1) = ActiveSheet.Cells(1, 1).Value & " " & inTableName
    ActiveSheet.Cells(1, 2) = inAutomaton
    ActiveSheet.Cells(1, 1).WrapText = True

    libNewAutomaton = sheetName_s

End Function 'libNewAutomaton()

Sub libLinkIndex(inRow As Integer, inSheet As String)
  Dim r As Range
  'Now hyperlink the cell with the table to the new sheet
  Set r = ActiveSheet.Cells(inRow, 1)
  r.Parent.Hyperlinks.Add Anchor:=r, Address:="", SubAddress:= _
        inSheet & "!A1", TextToDisplay:=ActiveSheet.Cells(inRow, 1).Text
        'ActiveSheet.Cells(inRow, 1).Text & "!A1", TextToDisplay:=ActiveSheet.Cells(inRow, 1).Text
End Sub 'libLinkIndex

Function libBuildSheet(inRow As Integer, inAutomatonName As String, inType As String) As Boolean
'inType could be either "M"apping or "D"efault
  
  'What row will the first table column be on?
  Const c_colRowoffset = 11
  'And what offset should be used for the row of column names = c_colRowoffset+2
  Const c_colListRowoffset = 13
  
  Dim rsOra As ADODB.Recordset
  Dim cnOra As ADODB.Connection

  Dim myErr As ADODB.Error
    
  Dim checkQry As String
  Dim i As Integer
  Dim y As Integer
  Dim r As Range
  Dim sheetName_s As String
  Dim tmpltType_s As String
  Dim sheetExists_b As Boolean
    
  Dim tabComments As Variant
  Dim tabColumns As Variant
  Dim tabConstraints As Variant


  'The template type is in column F (6)
  tmpltType_s = ActiveSheet.Cells(inRow, 6).Text

  Application.ScreenUpdating = True
  
  'Only check the template after mapping 1.02 - before that assume it's a mapping
  If mappingVersion >= "1.02" Then
     Select Case tmpltType_s
     Case c_tmpltDDLToken
       sheetName_s = libNewAutomaton(tmpltType_s, _
                                     inAutomatonName)
       'Now hyperlink the cell with the table to the new sheet
       Call libIndexSheet
       If sheetName_s <> "" Then
         Call libLinkIndex(inRow, sheetName_s)
       End If
       libBuildSheet = True
       Exit Function
     Case c_tmpltMappingToken
       'Do nothing - carry through to the remainder of the code which generates a mapping
     
     Case Else
       MsgBox "Template type of '" & tmpltType_s & "' is not supported."
       Call libIndexSheet
       libBuildSheet = False
       Exit Function
     End Select
  End If 'if mappingVersion > 1.02
  'We can now assume this is a mapping sheet being generated
  Set rsOra = New ADODB.Recordset
  'Set cnOra = New ADODB.Connection
  
  Call libOpenConnection(cnOra, glibServer, glibUsername, glibPassword, glibConnStr)
  
  If cnOra.State <> adStateOpen Then
    MsgBox "Connection successful for: " & glibConnStr
    libBuildSheet = False
    Exit Function
  End If

'MsgBox "buildSheet() cnOra state: " & cnOra.State
'MsgBox "buildSheet() cnOra string: " & cnOra.ConnectionString
  

  '1. Build the query for the table comments
   checkQry = " SELECT utc.table_name," & _
       " utc.comments" & _
  " FROM user_tab_comments utc" & _
 " WHERE utc.table_name =UPPER('" & inAutomatonName & "')" & _
 " UNION ALL SELECT '_EOF_AND_BOF_SOLUTION',null from dual " & _
 " order by table_name"
 
 
 With rsOra
   .Source = checkQry
   .ActiveConnection = cnOra
   .CursorType = adOpenForwardOnly
   .LockType = adLockOptimistic
   .CursorLocation = adUseServer
     .Open
     .MoveFirst
 End With
 
 tabComments = rsOra.GetRows(rsOra.RecordCount)

  rsOra.Close
  Set rsOra = Nothing
  Set rsOra = New ADODB.Recordset
  
  
  '2. Build the query for the column information
   checkQry = " SELECT utc.table_name," & _
       " utc.column_name," & _
       " decode(utc.nullable,'N','Y','N') mandatory," & _
       " utc.data_type, " & _
       " Case utc.data_type" & _
          " when 'VARCHAR2' then" & _
        " to_char (utc.data_length)" & _
          " when 'NUMBER' then" & _
           " to_char(utc.data_precision || ',' || utc.data_scale)" & _
       " end  data_precision," & _
       "utc.data_default," & _
       "utc.column_id," & _
       "ucc.comments" & _
  " FROM user_tab_columns utc, user_col_comments ucc" & _
 " WHERE utc.table_name =UPPER('" & inAutomatonName & "')" & _
 " AND utc.table_name = ucc.table_name (+)" & _
 " AND utc.column_name = ucc.column_name (+)" & _
 " UNION ALL SELECT '_EOF_AND_BOF_SOLUTION',null,null,null,null,null,null,null from dual " & _
 " order by table_name, column_id"
 
 
 With rsOra
   .Source = checkQry
   .ActiveConnection = cnOra
   .CursorType = adOpenForwardOnly
   .LockType = adLockOptimistic
   .CursorLocation = adUseServer
     .Open
     .MoveFirst
 End With
 
 tabColumns = rsOra.GetRows(rsOra.RecordCount)

  rsOra.Close
  Set rsOra = Nothing
  Set rsOra = New ADODB.Recordset
  'Call libCloseConnection(cnOra)
  'Call libOpenConnection(cnOra)
  

  '3. Build the query for the column constraints
   checkQry = "SELECT ucc.column_name, uc.constraint_type, uc.search_condition" & _
  " FROM USER_CONSTRAINTS uc, user_cons_columns ucc" & _
 " WHERE uc.table_name =UPPER('" & inAutomatonName & "')" & _
   " and uc.generated = 'USER NAME'" & _
   " and uc.constraint_type in ('P', 'C')" & _
   " and uc.table_name = ucc.table_name" & _
   " and uc.constraint_name = ucc.constraint_name" & _
   " UNION ALL SELECT '_EOF_AND_BOF_SOLUTION',null,null from dual " & _
 " order by 1"

 With rsOra
   .Source = checkQry
   .ActiveConnection = cnOra
   .CursorType = adOpenForwardOnly
   .LockType = adLockOptimistic
   .CursorLocation = adUseServer
     .Open
     .MoveFirst
 End With

 
tabConstraints = rsOra.GetRows(rsOra.RecordCount)

rsOra.Close
Set rsOra = Nothing
'Call libCloseConnection(cnOra)
  
If tabColumns(1, 0) <> "_EOF_AND_BOF_SOLUTION" Then
 
    'Create the new automaton from a template
    sheetName_s = libNewAutomaton(tmpltType_s, _
                                  inAutomatonName)
    If sheetName_s = "" Then
       Call libIndexSheet
       libBuildSheet = False
       Exit Function
    End If
    

'1. Process table level information
If tabComments(1, 0) <> "_EOF_AND_BOF_SOLUTION" Then
    ActiveSheet.Cells(1, 4) = tabComments(1, 0) 'Comment into the Description cell
End If 'If tabComments has information
  
'2. Process column level information
For i = 0 To UBound(tabColumns, 2)
   
    ActiveSheet.Cells(c_colRowoffset + i, 1) = tabColumns(1, i) 'Column name
    'ActiveSheet.Cells(4 + i, 1).HorizontalAlignment = xlLeft
    ActiveSheet.Cells(c_colRowoffset + i, 2) = tabColumns(2, i) 'Mandatory
    'ActiveSheet.Cells(4 + i, 2).HorizontalAlignment = xlCenter
    ActiveSheet.Cells(c_colRowoffset + i, 3) = tabColumns(7, i) 'Column Comment
    'ActiveSheet.Cells(4 + i, 9).HorizontalAlignment = xlCenter
    ActiveSheet.Cells(c_colRowoffset + i, 6) = tabColumns(3, i) 'Type
    'ActiveSheet.Cells(4 + i, 6).HorizontalAlignment = xlLeft
    ActiveSheet.Cells(c_colRowoffset + i, 7) = tabColumns(4, i) 'Length/Preceision
    'ActiveSheet.Cells(4 + i, 7).HorizontalAlignment = xlCenter
    ActiveSheet.Cells(c_colRowoffset + i, 8) = tabColumns(5, i) 'Default Value - HC moved to Col 8
    'ActiveSheet.Cells(4 + i, 9).HorizontalAlignment = xlCenter
    
    

 For y = 0 To UBound(tabConstraints, 2)
 
   If tabConstraints(0, y) = tabColumns(1, i) Then
   
   If tabConstraints(1, y) = "P" Then
   ActiveSheet.Cells(c_colRowoffset + i, 4) = "Y"
   
   Else
    If ActiveSheet.Cells(c_colRowoffset + i, 5) = "" Then
        ActiveSheet.Cells(c_colRowoffset + i, 5) = tabConstraints(2, y)
    Else
        ActiveSheet.Cells(c_colRowoffset + i, 5) = ActiveSheet.Cells(c_colRowoffset + i, 5) & ";" & Chr(10) & tabConstraints(2, y)
    End If
   
   End If
   
  End If
   Next y


   Next i

  
  
 
  For y = 0 To UBound(tabColumns, 2)
  
  ActiveSheet.Cells(i + c_colListRowoffset, 1 + y) = tabColumns(1, y)
  
 
  Next y
  
  'Heading Cell for the row of column names
  ActiveSheet.Cells(i + c_colListRowoffset - 1, 1) = "Static Data"
  Range(ActiveSheet.Cells(i + c_colListRowoffset - 1, 1), ActiveSheet.Cells(i + c_colListRowoffset - 1, 1)).Font.Bold = True
  'Range(ActiveSheet.Cells(i + c_colListRowoffset - 1, 1), ActiveSheet.Cells(i + c_colListRowoffset - 1, 1)).Interior.ColorIndex = ActiveSheet.Cells(2, 1).Interior.ColorIndex
  
  'Format sheet
  ActiveSheet.Columns(1).HorizontalAlignment = xlLeft
  ActiveSheet.Columns(2).HorizontalAlignment = xlCenter
  ActiveSheet.Columns(4).HorizontalAlignment = xlCenter
  ActiveSheet.Columns(5).HorizontalAlignment = xlCenter
  ActiveSheet.Columns(6).HorizontalAlignment = xlLeft
  ActiveSheet.Columns(7).HorizontalAlignment = xlCenter
  ActiveSheet.Columns(9).HorizontalAlignment = xlCenter
  ActiveSheet.Columns(1).WrapText = True
  ActiveSheet.Columns(2).WrapText = True
  ActiveSheet.Columns(4).WrapText = True
  ActiveSheet.Columns(5).WrapText = True
  ActiveSheet.Columns(6).WrapText = True
  ActiveSheet.Columns(7).WrapText = True
  ActiveSheet.Columns(9).WrapText = True
  Range(ActiveSheet.Cells(i + c_colListRowoffset, 1), ActiveSheet.Cells(i + c_colListRowoffset, y)).Interior.ColorIndex = ActiveSheet.Cells(1, 1).Interior.ColorIndex
  Range(ActiveSheet.Cells(i + c_colListRowoffset, 1), ActiveSheet.Cells(i + c_colListRowoffset, y)).Borders(xlEdgeTop).LineStyle = xlContinuous
  Range(ActiveSheet.Cells(i + c_colListRowoffset, 1), ActiveSheet.Cells(i + c_colListRowoffset, y)).Borders(xlEdgeBottom).LineStyle = xlContinuous
  Range(ActiveSheet.Cells(i + c_colListRowoffset, 1), ActiveSheet.Cells(i + c_colListRowoffset, y)).Borders(xlEdgeLeft).LineStyle = xlContinuous
  Range(ActiveSheet.Cells(i + c_colListRowoffset, 1), ActiveSheet.Cells(i + c_colListRowoffset, y)).Borders(xlEdgeRight).LineStyle = xlContinuous
  Range(ActiveSheet.Cells(i + c_colListRowoffset, 1), ActiveSheet.Cells(i + c_colListRowoffset, y)).Borders(xlInsideVertical).LineStyle = xlContinuous
  Range(ActiveSheet.Cells(i + c_colListRowoffset, 1), ActiveSheet.Cells(i + c_colListRowoffset, y)).WrapText = True
  Range(ActiveSheet.Cells(i + c_colListRowoffset, 1), ActiveSheet.Cells(i + c_colListRowoffset, y)).Font.Bold = True
  
  Else 'The table was not found
    MsgBox "Unable to find a table named : " & inAutomatonName
    libBuildSheet = False
    Exit Function
  End If
  Call libIndexSheet

  'Now hyperlink the cell with the table to the new sheet
  Call libLinkIndex(inRow, inAutomatonName)
  libBuildSheet = True

Exception:
 
End Function 'libBuildSheet()


'================================================================
' Automaton/Mapping version Number
'================================================================
Function mappingVersion() As String
    Dim val_s As String
    val_s = VBA.Trim(Worksheets("Index").Cells(2, 8).Text)
    If val_s = "" Then
      val_s = "0.00"
    End If
    mappingVersion = val_s
End Function ''mapVersion()
'================================================================
' Get configuration settings for the automaton
'================================================================
Function libGetConfig(inAutoType As String, inConfigNum As Integer) As String

  On Error GoTo Exception
    
    Const c_subName = "libGetConfig()" 'Automaton configuration
    Const c_tabAutomatonType = "tabAutomatonConfig" 'Automaton configuration
    
    Dim error_s As String
    Dim val_s As String
    
    'vlookupStr_s = "VLOOKUP(""" + inAutoType + """," _
    '                            + c_tabAutomatonType + "," _
    '                            + Str(inConfigNum) + ",False)"
    val_s = Application.WorksheetFunction.VLookup(inAutoType, Range(c_tabAutomatonType), inConfigNum, False)
    libGetConfig = val_s
    Exit Function
Exception:
    MsgBox c_subName & " raised " & Err.Source & Chr(13) & Err.Description & " (" & Trim(Str(Err.Number)) & ")."
    If Err.Number = 1004 Then
      error_s = "A record for Mapping Type '" & inAutoType & "' does not exist in Reference table '" & c_tabAutomatonType & "'. Please add it."
    End If
    MsgBox error_s
End Function

'================================================================
' Create the script name
'================================================================
Function libScriptName(inMapType As String, inAutomatonName As String) As String
    'File structure constants
    Const c_autoPrefixCol = 2
    Const c_autoSuffixCol = 3
    Const c_autoExtensionCol = 4
    Const c_autoDiffCol = 5
    
    Dim autoPrefix_s As String
    Dim autoSuffix_s As String
    Dim autoExtension_s As String
    Dim autoDiff_s As String 'This differentiates between mapping books - typically the subdirectory and used in file name
    
    'Set defaults for backward compatability
    If mappingVersion < "1.02" Then
      autoPrefix_s = "DATACNV_"
      autoSuffix_s = "_LOAD"
      autoExtension_s = ".SQL"
      autoDiff_s = UCase(VBA.Trim(Worksheets("Index").Cells(1, 5).Text)) & "_"
    Else
      'autoDiff_s = UCase(VBA.Trim(Worksheets("Index").Cells(1, 5).Text)) 'Shortname on Index tab
      autoPrefix_s = libGetConfig(inMapType, c_autoPrefixCol)
      autoSuffix_s = libGetConfig(inMapType, c_autoSuffixCol)
      autoExtension_s = libGetConfig(inMapType, c_autoExtensionCol)
      autoDiff_s = libGetConfig(inMapType, c_autoDiffCol)
    End If
    
    libScriptName = autoPrefix_s & autoDiff_s & inAutomatonName & autoSuffix_s & autoExtension_s

End Function 'libScriptName

'================================================================
' Determine what type of Automaton this is
'================================================================
Function isDynamic(inMapType As String) As Boolean
    Dim val_b As Boolean
    val_b = False
    If inMapType = c_dynamicToken Then
      val_b = True
    End If
    isDynamic = val_b
End Function
Function isStatic(inMapType As String) As Boolean
    Dim val_b As Boolean
    val_b = False
    If inMapType = c_staticToken Then
      val_b = True
    End If
    isStatic = val_b
End Function
Function isView(inMapType As String) As Boolean
    Dim val_b As Boolean
    val_b = False
    If inMapType = c_viewToken Then
      val_b = True
    End If
    isView = val_b
End Function
Function isMatView(inMapType As String) As Boolean
    Dim val_b As Boolean
    val_b = False
    If inMapType = c_matviewToken Then
      val_b = True
    End If
    isMatView = val_b
End Function
Function isCreateTable(inMapType As String) As Boolean
    Dim val_b As Boolean
    val_b = False
    If inMapType = c_tabToken Then
      val_b = True
    End If
    isCreateTable = val_b
End Function
Function isTest(inMapType As String) As Boolean
    Dim val_b As Boolean
    val_b = False
    If inMapType = c_testToken Then
      val_b = True
    End If
    isTest = val_b
End Function
Function isMappingOnly(inMapType As String) As Boolean
    Dim val_b As Boolean
    val_b = False
    If inMapType = c_mappingToken Then
      val_b = True
    End If
    isMappingOnly = val_b
End Function
Function isUnsupported(inMapType As String) As Boolean
    Dim val_b As Boolean
    val_b = True
    If isDynamic(inMapType) Or _
       isStatic(inMapType) Or _
       isView(inMapType) Or _
       isMatView(inMapType) Or _
       isCreateTable(inMapType) Or _
       isTest(inMapType) Or _
       isMappingOnly(inMapType) Then
      val_b = False
    End If
    isUnsupported = val_b
End Function
Function isSelectClause(inMapType As String) As Boolean
    Dim val_b As Boolean
    val_b = False
    If isDynamic(inMapType) Or _
       isView(inMapType) Or _
       isMatView(inMapType) Then
      val_b = True
    End If
    isSelectClause = val_b
End Function
Function isDataConv(inMapType As String) As Boolean
    Dim val_b As Boolean
    val_b = False
    If isDynamic(inMapType) Or _
       isStatic(inMapType) Then
      val_b = True
    End If
    isDataConv = val_b
End Function
Function isDDL(inMapType As String) As Boolean
    Dim val_b As Boolean
    val_b = False
    If isView(inMapType) Or _
       isMatView(inMapType) Or _
       isCreateTable(inMapType) Then
      val_b = True
    End If
    isDDL = val_b
End Function
'Has the user decided to integrate the generated data with elf utilities
Function isIntegrated(inMapType As String) As Boolean
    Dim val_b As Boolean
    Dim val_s As String
    
    val_b = False
    val_s = UCase(VBA.Trim(Worksheets("Index").Cells(1, 9).Text))
    If val_s = "YES" Then
      val_b = True
    End If
    
    'If no mapping type is passed in just return the spreadsheet decisioon, but if a mapping type is passed make sure it is not DDL
    If inMapType <> "" Then
      If isDDL(inMapType) Then  'If it is A DDL then it must be integrated or the DDL won't work
        val_b = True
      End If
    End If
    isIntegrated = val_b
End Function

'================================================================
' Convert a DDL call to a PL/SQL call to execute the DDL
'================================================================
Function execDDL(inDDL As String, inCallType As String) As String
  If isIntegrated("") Then
    Select Case inCallType
      Case "Enclose"
        execDDL = "ELF_UTILS_SQL.exec_sql('" & inDDL & "');"
      Case "Start"
        execDDL = "ELF_UTILS_SQL.exec_sql('" & inDDL
      Case "Close"
        execDDL = inDDL & "');"
    End Select
  Else
    Select Case inCallType
      Case "Enclose"
        execDDL = "EXECUTE IMMEDIATE '" & inDDL & "';"
      Case "Start"
        execDDL = "EXECUTE IMMEDIATE '" & inDDL
      Case "Close"
        execDDL = inDDL & "';"
    End Select
  End If
End Function 'execDDL()

'================================================================
' Create a comment command
'================================================================
Function commentDDL(inSchema As String, _
                    inTable As String, _
                    inColumn As String, _
                    inComment As String) As String
  Dim comment_s As String
  Dim table_s As String
   
  If inSchema = "" Then
    table_s = inSchema & "." & inTable
  Else
    table_s = inTable
  End If
  If inColumn = "" Then
    comment_s = "COMMENT ON TABLE " & table_s & " IS ''" & inComment & "''"
  Else
    comment_s = "COMMENT ON COLUMN " & table_s & "." & inColumn & " IS ''" & inComment & "''"
  End If
  
  commentDDL = execDDL(comment_s, "Enclose")

End Function 'commentDDL()

'================================================================
' Create the core automaton code
'================================================================
Function libAutoCodeInit(inMapType As String, _
                         inTargetName As String, _
                         inTargetSchema As String, _
                         inTableSpaceName As String, _
                         inColList As String, _
                         inColListDDL As String, _
                         outCodeType As String) _
                         As String
    
    Dim stmt_s As String
    Dim targetNameX_s As String

    targetNameX_s = inTargetName
    
    'For DDL creation, extend the target table with schema name if one exists
    If isDDL(inMapType) And _
      inTargetSchema <> "" Then
      targetNameX_s = inTargetSchema & "." & inTargetName
    End If
    
    If isDynamic(inMapType) Or _
       isStatic(inMapType) Then
      outCodeType = "DML"
      stmt_s = "INSERT INTO " & _
                  targetNameX_s & vbCrLf & c_offset & "(" & _
                  inColList & ")"
    
    ElseIf isView(inMapType) Then
      outCodeType = "DML"
      stmt_s = "CREATE OR REPLACE VIEW " & _
                  targetNameX_s & vbCrLf & c_offset & "(" & _
                  inColList & ") AS"
    
    ElseIf isMatView(inMapType) Then
      outCodeType = "DML"
      stmt_s = "CREATE OR REPLACE MATERIALIZED VIEW " & _
                   targetNameX_s & vbCrLf & c_offset & "(" & _
                   inColList & ") AS"
    
    ElseIf isCreateTable(inMapType) Then
      outCodeType = "DDL"
      stmt_s = "CREATE TABLE " & _
                   Trim(targetNameX_s) & vbCrLf & c_offset & "(" & _
                   inColListDDL & ")"
      If inTableSpaceName <> "" Then
        stmt_s = stmt_s & vbCrLf & c_offset & "TABLESPACE " & inTableSpaceName 'Leave the ";" as this is ddl
      End If
    End If

    'This works for the tables - but views need to be addressed
    If outCodeType = "DDL" Then
      stmt_s = execDDL(stmt_s, "Enclose")
    ElseIf isView(inMapType) Or isMatView(inMapType) Then
      stmt_s = execDDL(stmt_s, "Start")
    End If
    
    libAutoCodeInit = stmt_s
    
End Function 'libAutoCodeInit()

'================================================================
' Client Specific Header
'================================================================
Function clientSpecificHeader(inMapType As String, _
                              inTargetName As String, _
                              inScriptName As String, _
                              inMapName As String) As String
    Dim line_s As String
    
    If gClientCode = "DJS" Then
       line_s = "/*******************************************************************************" & vbCrLf & _
                "* $Author:  $" & vbCrLf & _
                "* $Date: $" & vbCrLf & _
                "* $Id:  $" & vbCrLf & _
                "* $Revision:  $" & vbCrLf & _
                "* $URL:  $" & vbCrLf & _
                "*===============================================================================" & vbCrLf & _
                "* Name: " & inScriptName & vbCrLf & _
                "*" & vbCrLf & _
                "* Usage: " & Mid(libAutoScriptLine("scriptCommentLine1", inMapType, inTargetName), 14, 100) & vbCrLf & _
                "*        " & Mid(libAutoScriptLine("scriptCommentLine2", inMapType, inTargetName), 14, 100) & vbCrLf & _
                "*        " & Mid(libAutoScriptLine("scriptCommentLine3", inMapType, inTargetName), 14, 100) & vbCrLf & _
                "*         " & ActiveWorkbook.Name & " tab: " & inMapName & vbCrLf & _
                "*" & vbCrLf & _
                "* Modification History:" & vbCrLf & _
                "* =====================" & vbCrLf & _
                "* Author                 Date        Changes" & vbCrLf & _
                "* ---------------------  ----------  -------------------------------------------" & vbCrLf & _
                "* Generated Script       " & Format(Date, "dd-mm-yyyy") & "  Initial Version   " & vbCrLf & _
                "*" & vbCrLf & _
                "*" & vbCrLf & _
                "********************************************************************************" & vbCrLf & _
                "*/"
    ' Put additional ElseIf statements for other clients when/if the time comes
    Else
       line_s = ""
    End If

    clientSpecificHeader = line_s
    
End Function 'clientSpecificHeader()

'================================================================
' Return a Script line
'================================================================
Function libAutoScriptLine(inLine As String, _
                           inMapType As String, _
                           inTargetName As String) As String
    Dim line_s As String
    
    
    If inLine = "scriptPreStmtLine1" Then
      If isDataConv(inMapType) Then
        line_s = "   dbms_output.put_line('Inserting data into " & inTargetName & " ...');"
      ElseIf isDDL_b Then
        line_s = "   dbms_output.put_line('Creating object " & inTargetName & " ...');"
      ElseIf isTest_b Then
        line_s = "   dbms_output.put_line('Executing Unit Test for" & inTargetName & " ...');"
      End If
    
    ElseIf isDynamic(inMapType) Then
      Select Case inLine
         Case "scriptCommentLine1"
            line_s = "Description:  This script will populate the " & inTargetName & " table with"
         Case "scriptCommentLine2"
            line_s = "              data generated dynamically from a spreadsheet mapping."
         Case "scriptCommentLine3"
            line_s = "              The script will be executed during data conversion activities."
         Case "scriptPostStmtLine1"
            line_s = "   dbms_output.put_line(L_count || ' row(s) inserted.');"
       End Select
    ElseIf isStatic(inMapType) Then
      Select Case inLine
         Case "scriptCommentLine1"
            line_s = "Description:  This script will populate the " & inTargetName & " table with"
         Case "scriptCommentLine2"
            line_s = "              static data defined in a spreadsheet mapping."
         Case "scriptCommentLine3"
            line_s = "              The script will be executed during data conversion activities."
         Case "scriptPostStmtLine1"
            line_s = "   dbms_output.put_line(L_count || ' row(s) inserted.');"
       End Select
    ElseIf isView(inMapType) Then
      Select Case inLine
         Case "scriptCommentLine1"
            line_s = "Description:  This script will create the " & inTargetName & " view"
         Case "scriptCommentLine2"
            line_s = "              based on query criteria defined in a spreadsheet mapping."
         Case "scriptCommentLine3"
            line_s = "              The script will be executed during release build activities."
         Case "scriptPostStmtLine1"
            line_s = "   dbms_output.put_line('CREATE VIEW command executed.');"
      End Select
    ElseIf isMatView(inMapType) Then
      Select Case inLine
         Case "scriptCommentLine1"
            line_s = "Description:  This script will create the " & inTargetName & " materialized view"
         Case "scriptCommentLine2"
            line_s = "              based on query criteria defined in a spreadsheet mapping."
         Case "scriptCommentLine3"
            line_s = "              The script will be executed during release build activities."
         Case "scriptPostStmtLine1"
            line_s = "   dbms_output.put_line('CREATE MATERIALIZED VIEW command executed.');"
       End Select
    ElseIf isCreateTable(inMapType) Then
      Select Case inLine
         Case "scriptCommentLine1"
            line_s = "Description:  This script will create the " & inTargetName & " table"
         Case "scriptCommentLine2"
            line_s = "              based on a table definition defined in a spreadsheet mapping."
         Case "scriptCommentLine3"
            line_s = "              The script will be executed during release build activities."
         Case "scriptPostStmtLine1"
            line_s = "   dbms_output.put_line('CREATE TABLE command executed.');"
      End Select
    ElseIf isTest_b Then
      Select Case inLine
         Case "scriptCommentLine1"
            line_s = "Description:  Testing " & inTargetName & " ...."
         Case "scriptCommentLine2"
            line_s = "              ....."
         Case "scriptCommentLine3"
            line_s = "              The script will be executed during testing activities."
         Case "scriptPostStmtLine1"
            line_s = "   dbms_output.put_line('Test executed.');"
      End Select
    End If
    
    libAutoScriptLine = line_s
    
End Function 'libAutoScriptLine()

'================================================================
' Create the Script
'================================================================
Sub libAutoScript(inSegment As String, _
                       inMapType As String, _
                       inMapName As String, _
                       inTargetName As String, _
                       inScriptName As String)
  'Generate the script in the current directory for the mapper
  Dim outputDir_s As String
  Dim logDir_s As String
  Dim script_comment_s As String
  Dim script_comment_array() As String
  Dim script_comment_line_s As String
  Dim clientHeader As String
  
  Select Case inSegment
    Case "Open"
      outputDir_s = ActiveWorkbook.Path & "\"
      logDir_s = VBA.Trim(Worksheets("Index").Cells(1, 7).Text)
      
      'Get the script comments and split by CRLF
      script_comment_s = VBA.Trim(ActiveSheet.Cells(2, 5).Text)
      script_comment_array() = Split(script_comment_s, vbLf)
      script_comment_line_s = ""
      For i = LBound(script_comment_array) To UBound(script_comment_array)
        script_comment_line_s = script_comment_line_s & script_comment_array(i) & vbCrLf & "                  "
      Next i
      script_comment_s = script_comment_line_s
      
      Open outputDir_s & inScriptName For Output As #69

      ' Start with header for PL/SQL script
      ' If there is a client specific header, then use it, otherwise use the default
      clientHeader = clientSpecificHeader(inMapType, inTargetName, inScriptName, inMapName)
      ' clientHeader will be an empty string if there is no specific header defined
      If clientHeader <> "" Then
         Print #69, clientHeader
      Else
         Print #69, "/*"
         Print #69, "------------------------------------------------------------------------"
         Print #69, "Program Name: " & inScriptName
         Print #69, libAutoScriptLine("scriptCommentLine1", inMapType, inTargetName) 'Description line 1
         Print #69, libAutoScriptLine("scriptCommentLine2", inMapType, inTargetName) 'Description line 2
         Print #69, libAutoScriptLine("scriptCommentLine3", inMapType, inTargetName) 'Description line 2
         Print #69, "Mapping Source:   " & ActiveWorkbook.Name & " tab: " & inMapName
         Print #69, "Mapping Saved:    " & Format(ActiveWorkbook.BuiltinDocumentProperties("Last Save Time"), "dd-mmm-yyyy Hh:Nn:ss")
         Print #69, "Script Generated: " & Format(Date, "dd-mmm-yyyy") & " " & Format(Time, "Hh:Nn:ss")
         Print #69, "Script Comments:  " & script_comment_s
         Print #69, "------------------------------------------------------------------------"
         Print #69, "*/"
      End If
      
      Print #69, ""
      Print #69, "set serveroutput on"
      Print #69, "set timing on"
      Print #69, "set define off" ' this allows ampersands (&'s)
      Print #69, "spool " & logDir_s & "/" & inScriptName & ".log"
      Print #69, ""
      Print #69, "DECLARE"
      Print #69, "   L_count   NUMBER := 0;"
      Print #69, "   L_script  VARCHAR2(250) := '" & inScriptName & "';"
      Print #69, "BEGIN"
      Print #69, "   dbms_output.put_line('Timing: '||to_char(sysdate,'dd-Mon-yyyy hh24:mi:ss'));"
      Print #69, libAutoScriptLine("scriptPreStmtLine1", inMapType, inTargetName)
      Print #69, ""
    
      If isIntegrated("") Then
        Print #69, "   ELF_UTILS_SQL.START_SCRIPT('" & inMapName & "');"
        Print #69, ""
      End If
    
    Case "Close"
      If isIntegrated("") Then
        Print #69, ""
        Print #69, "   ELF_UTILS_SQL.END_SCRIPT('" & inMapName & "', L_count);"
        Print #69, ""
      End If
    
      Print #69, ""
      Print #69, libAutoScriptLine("scriptPostStmtLine1", inMapType, inTargetName)

      ' add tail to PL/SQL script
      Print #69, "   dbms_output.put_line(L_script || ' was finished successfully.');"
      Print #69, "EXCEPTION"
      Print #69, "   WHEN OTHERS THEN"
      If isIntegrated("") Then
        Print #69, "      ELF_UTILS_SQL.ERROR_SCRIPT('" & inMapName & "', L_count);"
      End If
      'If isDynamic_b = False Then
      If isStatic(inMapType) = True Then
        Print #69, "      dbms_output.put_line('!!! ERROR in row: ' || L_count);  "
      End If
      Print #69, "      dbms_output.put_line(L_script || ' was stopped.');"
      Print #69, "      ROLLBACK;"
      Print #69, "      raise;"
      Print #69, "END;"
      Print #69, "/"
      Print #69, "spool OFF"
    
      ' Close the output file
      Close #69
  End Select



End Sub      'libAutoScript()



'================================================================
' Primary generation logic
'================================================================
Sub libGenerateScript(inRow As Integer, input_sheet_s As String)

  On Error GoTo Exception
  
    'What row will the first table column be on?
    Const c_colRowoffset = 11
    Const c_scriptError = "Script Error"
    Const c_colsToken = "COLUMN NAMES"
    'SQL Clause tokens
    Const c_tokPreSQL = "PRE-SQL (WITH CLAUSE)"
    Const c_tokSQLHint = "PERFORMANCE (SQL HINT)"
    Const c_tokWhereClause = "CRITERIA (WHERE CLAUSE)"
    
    
    Dim lasterr_s As String
    Dim value_s As String
    Dim mapType_s As String
    Dim mapObjectName_s As String
    Dim table_comment_s As String
    Dim table_constraint_s As String
    Dim table_constraint_line_s As String
    Dim table_constraint_array() As String
    Dim table_pk_constraint_s As String
    Dim table_pk_name_s As String
    Dim table_pk_cols_s As String
    Dim tablespace_s As String
    Dim column_s As String
    Dim data_s As String
    Dim table_s As String
    Dim column_list_s As String
    Dim column_list_ddl_s As String
    Dim comment_list_s As String
    Dim comment_syntax_s As String
    Dim column_syntax_s As String
    Dim data_list_s As String
    Dim table_list_s As String
    Dim db_link_s As String
    Dim ss_prefix_s As String
    Dim output_dir_s As String
    Dim log_dir_s As String
    Dim map_user_s As String
    Dim mapName_s As String
    Dim filename_s As String
    Dim statement_s As String
    Dim stmtCodeType_s As String
    Dim presql_s As String
    Dim hint_s As String
    Dim conditions_s As String
    Dim data_value_s As String

    
    Dim col_name(1000) As String
    Dim data_name(1000) As String
    Dim table_name(500) As String
    'Additional arrays to store Column Definitions for table creation
    Dim colRequired_s(1000) As String
    Dim colComments_s(1000) As String
    Dim colPk_s(1000) As String
    Dim colConstraint_s(1000) As String
    Dim colDataType_s(1000) As String
    Dim colDataFmt_s(1000) As String
    Dim colDefaultVal_s(1000) As String

    Dim sheet_found_b As Boolean
    Dim data_area_found_b As Boolean
    
    Dim isSqlFunc_b As Boolean
    Dim isSequence_b As Boolean

    Dim isTableFound_b As Boolean
    
    Dim sheet_i As Integer
    Dim row_i As Integer
    Dim col_i As Integer
    Dim table_i As Integer
    Dim max_cols_i As Integer
    Dim table_pos_i As Integer
    Dim start_table_pos_i As Integer
    Dim max_tables_i As Integer
    Dim tab_cols_row_i As Integer
    
    Dim supported_Sql() As Variant
  
    Dim sql_func_v As Variant
    
    ' List of sql constructs that are processed correctly
    supported_Sql = Array("NVL", "DECODE", "TO_CHAR", "TO_NUMBER", "TO_DATE", _
                          "SUBSTR", "TRIM", "UPPER", "LOWER", "INITCAP", "MAX", "MIN", "SUM", "CASE")
                          
   
    ' Allow Screen Updating
    Application.ScreenUpdating = True
    
    ' If the table name hasn't been populated in the Index, just move on to the next one
    If Trim(input_sheet_s) = "" Then
      Call libIndexSheet
      Exit Sub
    End If
    
    ' Find the sheet which needs to be extracted
    sheet_found_b = libFindSheet(input_sheet_s)
    
    If sheet_found_b = False Then
      MsgBox "Unable to find a sheet named : " & input_sheet_s & ". Creating a mapping for you.", 0, c_scriptError
      If Not libBuildSheet(inRow, UCase(input_sheet_s), "M") Then
      'if the creation failed, exit out
        Exit Sub
      End If
    End If
    sheet_found_b = libFindSheet(input_sheet_s)
    
    ' Determine the automaton mapping type
    mapType_s = VBA.Trim(ActiveSheet.Cells(2, 2).Text)
    value_s = UCase(mapType_s)
    'No generation for just mappings
    If isMappingOnly(mapType_s) Then
      Call libIndexSheet
      Exit Sub
    ElseIf isUnsupported(mapType_s) Then
      MsgBox "Mapping type of '" & mapType_s & "' is not supported."
      Call libIndexSheet
      Exit Sub
    End If
    
    'Get tablename from B2
    value_s = UCase(Replace(VBA.Trim(ActiveSheet.Cells(1, 2).Text), " ", ""))
    mapObjectName_s = UCase(VBA.Trim(value_s))
    'And comment from B4
    table_comment_s = VBA.Trim(ActiveSheet.Cells(1, 4).Text)
    table_pk_name_s = VBA.Trim(ActiveSheet.Cells(6, 2).Text)
    table_pk_cols_s = VBA.Trim(ActiveSheet.Cells(6, 5).Text)
    table_constraint_s = VBA.Trim(ActiveSheet.Cells(8, 2).Text)
    tablespace_s = VBA.Trim(ActiveSheet.Cells(4, 2).Text)
    
    ' If there's no table name, exit from this sheet...
    If Trim(mapObjectName_s) = "" Then
      If isView(mapType_s) Or isMatView(mapType_s) Then
        MsgBox "View name not found on sheet " & input_sheet_s
      Else
        MsgBox "Table name not found on sheet " & input_sheet_s
      End If
      Exit Sub
    End If
    
    'Get Index parameters
    db_link_s = UCase(VBA.Trim(Worksheets("Index").Cells(1, 3).Text))
    ss_prefix_s = UCase(VBA.Trim(Worksheets("Index").Cells(1, 5).Text))
    log_dir_s = VBA.Trim(Worksheets("Index").Cells(1, 7).Text)
    map_user_s = VBA.Trim(Worksheets("Index").Cells(1, 11).Text)
    
    ' Get the value of cell(3,1).
    ' If it's "Columns" then loop down the rows, fetching the column names
    ' if it's not "columns", loop across the row and save the column names
    value_s = UCase(VBA.Trim(ActiveSheet.Cells(c_colRowoffset - 1, 1).Text))
    If value_s = c_colsToken Then
      ' Load all the column names - assume no more than 1,000
      For row_i = c_colRowoffset To c_colRowoffset + 999
                        
        column_s = UCase(VBA.Trim(ActiveSheet.Cells(row_i, 1).Text))
        If column_s = "" Then
          Exit For
        End If
        ' Keep a track of how many columns are in this table (used when reading the
        ' data rows)
        max_cols_i = max_cols_i + 1
            
        col_name(max_cols_i) = column_s
        'Additional Information for Table Creation
        If isCreateTable(mapType_s) Then
          colRequired_s(max_cols_i) = UCase(VBA.Trim(ActiveSheet.Cells(row_i, 2).Text))
          colComments_s(max_cols_i) = VBA.Trim(ActiveSheet.Cells(row_i, 3).Text) 'Not UCase for comments
          colPk_s(max_cols_i) = UCase(VBA.Trim(ActiveSheet.Cells(row_i, 4).Text))
          colConstraint_s(max_cols_i) = UCase(VBA.Trim(ActiveSheet.Cells(row_i, 5).Text))
          colDataType_s(max_cols_i) = UCase(VBA.Trim(ActiveSheet.Cells(row_i, 6).Text))
          colDataFmt_s(max_cols_i) = UCase(VBA.Trim(ActiveSheet.Cells(row_i, 7).Text))
          colDefaultVal_s(max_cols_i) = VBA.Trim(ActiveSheet.Cells(row_i, 8).Text)  'Not UCase for default
        End If
            
        'If the SQL has a select statement the iterate through the mapping column
        'If isDynamic(mapType_s) Then
        If isSelectClause(mapType_s) Then
          ' Get the data mapping - if blank substitute for NULL
          'data_s = UCase(VBA.Trim(ActiveSheet.Cells(row_i, 10).Text))
          data_s = VBA.Trim(ActiveSheet.Cells(row_i, 10).Text)
          If data_s = "" Then
            data_s = "NULL"
          End If
            
          ' Check to see whether data is a known sql function
          isSqlFunc_b = False
          For Each sql_func_v In supported_Sql
            If StrComp(sql_func_v & "(", Left(Replace(UCase(data_s), " ", ""), Len(sql_func_v) + 1), 1) = 0 Then
              isSqlFunc_b = True
              Exit For
            End If
          Next sql_func_v
            
          ' Check to see whether a table name for mapping exists
          table_pos_i = InStr(1, data_s, ".", 1)
          If table_pos_i = 0 Or _
             InStr(1, data_s, "+", 1) = 1 Or _
             InStr(1, data_s, "-", 1) = 1 Then
            ' No table name found
            ' Check if the value needs single-quotes around it
            Select Case UCase(data_s)
              Case "NULL", "USER", "SYSDATE", "SYSTIMESTAMP"
                   data_name(max_cols_i) = UCase(data_s)
              Case Else
                   ' If data then need to format it
                   If isSqlFunc_b = True Or _
                      col_name(max_cols_i) = data_s Then
                     data_name(max_cols_i) = data_s
                   Else
                     data_name(max_cols_i) = "'" & data_s & "'"
                   End If
            End Select

          Else
            ' Table name found
            data_name(max_cols_i) = data_s
            
            
            If isSqlFunc_b = True Then
              ' Find the start bracket for the function.  Assume the table name is directly afterward.
              start_table_pos_i = InStr(1, data_s, "(", 1)
              table_s = Mid(data_s, start_table_pos_i + 1, table_pos_i - start_table_pos_i - 1)
              ' If the table has a : in it, ie a local table, then ensure the : is not included
              ' data portion of the insert statement.
              If Left(table_s, 1) = ":" Then
                data_name(max_cols_i) = Replace(data_s, ":", "")
              End If
            Else
              table_s = Left(data_s, table_pos_i - 1)
            End If
            
            value_s = UCase(Right(data_s, Len(data_s) - table_pos_i))
            isTableFound_b = False
            isSequence_b = False
            If value_s = "CURRVAL" Or value_s = "NEXTVAL" Then
               isSequence_b = True
               table_s = ""
            End If
              
          End If 'Table name found in the source tale column field
          
          'If no table is specified in the column field but there is one defined in the
          '"Source Table/View" column, use that
          'MsgBox ("table_s was '" & table_s & "'")
          If table_s = "" Or Len(table_s) = 0 Then
            table_s = UCase(VBA.Trim(ActiveSheet.Cells(row_i, 9).Text))
            'MsgBox ("table_s now '" & table_s & "'")
          End If

            'If a table has been specified, add it to the array
            If Len(table_s) > 0 Then
              ' Check to see wether the table already exists in array
              If max_tables_i > 0 Then
                For table_i = 1 To max_tables_i
                  If UCase(table_name(table_i)) = UCase(table_s) Then
                    isTableFound_b = True
                    Exit For
                  End If
                Next table_i
              End If
            End If
            ' if not found then add it to list of tables
            If Len(table_s) > 0 And Not isSequence_b And Not isTableFound_b Then
              max_tables_i = max_tables_i + 1
              table_name(max_tables_i) = table_s
            End If

        
        End If ' isSelectClause(mapType_s)
        
      Next row_i
    Else
      ' This is a "data sheet" - static data ...so read the column names horizontally.
      For col_i = 1 To 1000
        column_s = Trim(ActiveSheet.Cells(3, col_i).Text)
            
        ' Stop when a cell without a value is reached.
        If Trim(column_s) = "" Then
          Exit For
        End If
                    
        ' Keep a track of how many columns are in this table (used when reading the
        ' data rows)
        max_cols_i = max_cols_i + 1
        col_name(max_cols_i) = column_s
            
      Next col_i
    End If
    
    ' Now build strings which contain all the column and data names
    For col_i = 1 To max_cols_i
      If col_i > 1 Then
        
        'If this is a creat table then we need different syntax for columns
        'All other mappings share column syntax
        If isCreateTable(mapType_s) Then
          column_list_ddl_s = column_list_ddl_s & "," & vbCrLf & "    "
        Else
          column_list_s = column_list_s & "," & vbCrLf & "    "
        End If
        'If isDynamic(mapType_s) Then
        If isSelectClause(mapType_s) Then
          data_list_s = data_list_s & "," & vbCrLf & "    "
        'ElseIf isView(mapType_s) Or isMatView(mapType_s) Then
        End If
      End If
      If isCreateTable(mapType_s) Then
        column_syntax_s = col_name(col_i) & " " & _
                          colDataType_s(col_i)
        If colDataFmt_s(col_i) <> "" Then
           column_syntax_s = column_syntax_s & " (" & colDataFmt_s(col_i) & ")"
        End If
        If colDefaultVal_s(col_i) <> "" Then
            'Assume we need to put quotes around the default value
            quoteDefaultVal_b = True
            'Now let's see whether that is true
            Select Case colDataType_s(col_i)
              Case "NUMBER", "BINARY_FLOAT", "BINARY_DOUBLE"
                quoteDefaultVal_b = False
              Case Else
                Select Case colDefaultVal_s(col_i)
                  Case "NULL", "USER", "SYSDATE", "SYSTIMESTAMP"
                    quoteDefaultVal_b = False
                  Case Else
                    If Left(colDefaultVal_s(col_i), 7) = "SYSDATE" Or _
                       Left(colDefaultVal_s(col_i), 12) = "SYSTIMESTAMP" Or _
                       Left(colDefaultVal_s(col_i), 5) = "TRUNC" Then
                      quoteDefaultVal_b = False
                    End If
                End Select
            End Select
            
            If quoteDefaultVal_b Then
              column_syntax_s = column_syntax_s & " DEFAULT ''" & colDefaultVal_s(col_i) & "''" 'Two quotes to ensure it's ok in the exec statement
            Else
              column_syntax_s = column_syntax_s & " DEFAULT " & colDefaultVal_s(col_i)
            End If
        End If
        'Move the Not Null after the Default
        If colRequired_s(col_i) = "Y" Or colRequired_s(col_i) = "YES" Then
          column_syntax_s = column_syntax_s & " NOT NULL"
        End If
        'Identify the columns as primary key only if a primary key has not been defined above.
        If table_pk_name_s = "" Or table_pk_cols_s = "" Then
          If colPk_s(col_i) = "Y" Or colPk_s(col_i) = "YES" Then
            column_syntax_s = column_syntax_s & " PRIMARY KEY"
          End If
        End If
        If colComments_s(col_i) <> "" Then
            comment_syntax_s = commentDDL(map_user_s, _
                                          mapObjectName_s, _
                                          col_name(col_i), _
                                          colComments_s(col_i))
            comment_list_s = comment_list_s & vbCrLf & c_offset & comment_syntax_s
        End If
        If colConstraint_s(col_i) <> "" Then
          column_syntax_s = column_syntax_s & vbCrLf & "     CHECK (" & Replace(colConstraint_s(col_i), "'", "''") & ")"
        End If
        
        column_list_ddl_s = column_list_ddl_s & column_syntax_s
        'MsgBox (col_name(col_i) & " Syntax " & column_syntax_s)
      Else
        column_list_s = column_list_s & col_name(col_i)
      End If
      'If this is a create table statement we need different syntax
      'If isDynamic(mapType_s) Then
      If isSelectClause(mapType_s) Then
        If Left(data_name(col_i), 1) = ":" Then
          data_list_s = data_list_s & Right(data_name(col_i), Len(data_name(col_i)) - 1)
        Else
          data_list_s = data_list_s & data_name(col_i)
        End If
      End If
    Next col_i
    
    'Build the statrt of the statement
    statement_s = libAutoCodeInit(mapType_s, _
                                  mapObjectName_s, _
                                  map_user_s, _
                                  tablespace_s, _
                                  column_list_s, _
                                  column_list_ddl_s, _
                                  stmtCodeType_s)
    
    ' Only create execute statements for table comments and constraints for create tables
    If isCreateTable(mapType_s) Then
      comment_s = commentDDL(map_user_s, _
                             mapObjectName_s, _
                             "", _
                             table_comment_s)
    
    
      'Split the table constraint string by a semi-colon and CRLF
      table_constraint_array() = Split(table_constraint_s, ";" & vbLf)
      table_constraint_line_s = ""
      For i = LBound(table_constraint_array) To UBound(table_constraint_array)
        table_constraint_line_s = table_constraint_line_s & execDDL(table_constraint_array(i), "Enclose") & vbCrLf & "   "
      Next i
      table_constraint_s = table_constraint_line_s
    End If
    
    If table_pk_name_s <> "" And table_pk_cols_s <> "" Then
      table_pk_constraint_s = "ALTER TABLE " & mapObjectName_s & _
                              " ADD CONSTRAINT " & table_pk_name_s & _
                              " PRIMARY KEY (" & table_pk_cols_s & ")"
      table_pk_constraint_s = execDDL(table_pk_constraint_s, "Enclose")
    End If
        
    'Define and create the desired script naming for the automaton based on the worksheet name
    'Note: this should be the same as the orchestrator/tracker this will be orchestrated by
    mapName_s = Replace(input_sheet_s, "(", "")
    mapName_s = Replace(mapName_s, ")", "")
    mapName_s = Replace(mapName_s, " ", "-")
    
    filename_s = libScriptName(mapType_s, mapName_s)
    
    Call libAutoScript("Open", _
                       mapType_s, _
                       mapName_s, _
                       mapObjectName_s, _
                       filename_s)

    ' Start building the SQL statement
    If isSelectClause(mapType_s) Or isCreateTable(mapType_s) Then
      Print #69, c_offset & statement_s
      Print #69, ""
    End If
    
    ' If its a create table add PK, Constraints and Table Comments
    If isCreateTable(mapType_s) Then
      If table_pk_constraint_s <> "" Then
        Print #69, c_offset & table_pk_constraint_s
        Print #69, ""
      End If
      If table_constraint_s <> "" Then
        Print #69, c_offset & table_constraint_s
        'Print #69, ""
      End If

      'Print comments even if there aren't any - to encourage good behaviour
      Print #69, c_offset & comment_s
      'Print #69, ""
      Print #69, comment_list_s
    End If
    
    ' Now loop down the rows of data or conditions.
    ' For each data row, write one "insert" line to the output file.
    ' For each condition row, build up the conditions string
    
    ' Start from the top of the sheet again, and start saving data once we encounter
    ' the first cell with a label matching the first column name
    
    conditions_s = ""
    data_area_found_b = False
    For row_i = 1 To 10000
    
      ' Jump out of loop when the first empty row is encountered once data has been found
      If UCase(VBA.Trim(ActiveSheet.Cells(row_i, 1).Text)) = "" Then
          If data_area_found_b = True Then
          ' HC No longer required as we know the criteria are now in B8
          ' xxIf we are building up a dynamic list or View and other values exist
          ' xxthen we need to insert a ';' at the end of the string
          'If isSelectClause(mapType_s) And _
          '   conditions_s <> "" Then
          '   conditions_s = conditions_s & ";"
          'End If
          Exit For
        End If
      End If
        
      If data_area_found_b = True Then
        If isStatic(mapType_s) = True Then
        
          ' Initial the string which will contain the values
          data_value_s = ""
                 
          For col_i = 1 To 250
            
            
            ' If this cell is merged, move forward to reach the next cell
            ' which contains a value
            ' To check this, look if this cell has a corresponding
            ' column name, if not, it's merged...
            If VBA.Trim(ActiveSheet.Cells(tab_cols_row_i, col_i).Text) <> "" Then
                
              If col_i > 1 Then
                data_value_s = data_value_s & "," & vbCrLf & "    "
              End If
                
              ' Get the value, and if it's not set, set it to "null"...
              value_s = Trim(ActiveSheet.Cells(row_i, col_i).Text)
              If Trim(value_s) = "" Then
                value_s = "NULL"
              End If
              
              ' Check if the value needs single-quotes around it
              Select Case UCase(value_s)
                Case "NULL", "USER", "SYSDATE", "SYSTIMESTAMP"
                     data_value_s = data_value_s & UCase(value_s)
                Case Else
                     If UCase(Left(value_s, 10)) = UCase("elfString:") Then
                       value_s = Mid(value_s, 11)
                     End If
                     data_value_s = data_value_s & "'" & Replace(value_s, "'", "''") & "'"
              End Select
            End If
                
          Next col_i
        
          ' Write this to the output file
          Print #69, "   L_count := L_count+1;"
                       
          Print #69, statement_s & vbCrLf & "   values" & vbCrLf & "   (" & data_value_s & ");"
           
        'HC No longer required as we know conditions are now in B8
        'Else
          ' assume all conditions in in the first column only
        '  col_i = 1

          ' If this cell is merged, move forward to reach the next cell
          ' which contains a value
          ' To check this, look if this cell has a corresponding column name
        '  If VBA.Trim(ActiveSheet.Cells(tab_cols_row_i, col_i).Text) <> "" Then
        
            ' Get the value
        '    value_s = Trim(ActiveSheet.Cells(row_i, col_i).Text)
            
        '    If conditions_s = "" Then
        '      conditions_s = value_s
        '    Else
        '      conditions_s = conditions_s & vbCrLf & "     " & "AND " & value_s
        '    End If
        '
        '  End If
            
        End If ' isSelectClause(mapType_s)
        
      End If ' data_area_found_
        
      ' If first 2 columns match then the data/conditions start
      If UCase(VBA.Trim(ActiveSheet.Cells(row_i, 1).Text)) = col_name(1) And _
         UCase(VBA.Trim(ActiveSheet.Cells(row_i, 2).Text)) = col_name(2) Then
          
         ' Set flag to indicate that data should now be saved for each subsequent row...
         data_area_found_b = True
           
         ' Keep a record of where the column names live...I'll need this later...
         tab_cols_row_i = row_i

      End If
    
    Next row_i
    
    If isSelectClause(mapType_s) Then
      For table_i = 1 To max_tables_i
        If table_i > 1 Then
          table_list_s = table_list_s & ","
        End If
        
        ' if first character is a ':' then assume to be 'local' table
        If Left(table_name(table_i), 1) = ":" Then
          table_list_s = table_list_s & Right(table_name(table_i), Len(table_name(table_i)) - 1)
        ElseIf db_link_s = "" Then
          table_list_s = table_list_s & table_name(table_i)
        Else
          table_list_s = table_list_s & table_name(table_i) & "@" & db_link_s
        End If
      Next table_i
    
      'Check for a SQL hint in B4, and pre-sql (WITH Clause) in B6 and criteria in B8
      presql_s = Trim(ActiveSheet.Cells(4, 2).Text)
      hint_s = Trim(ActiveSheet.Cells(6, 2).Text)
      conditions_s = Trim(ActiveSheet.Cells(8, 2).Text)
      If conditions_s <> "" Then
        If isView(mapType_s) Or isMatView(mapType_s) Then
          conditions_s = execDDL(conditions_s, "Close")
        Else
          conditions_s = conditions_s & ";"
        End If
      End If
      'MsgBox "presql_s: " & presql_s

      If presql_s <> "" Then
        Print #69, "   " & presql_s ' WITH Clause
      End If
      ' Add support for selecting DISTINCT
      If InStr(1, UCase(conditions_s), "DISTINCT") Then
        conditions_s = Replace(conditions_s, "DISTINCT", "")
        Print #69, "   SELECT DISTINCT " & hint_s & " " & data_list_s  ' list of data
      Else
        Print #69, "   SELECT " & hint_s & " " & data_list_s  ' list of data
      End If
        
      ' If no conditions
      If conditions_s = "" Then
        table_list_s = table_list_s & "';"
      End If
    
      Print #69, "    FROM " & table_list_s  ' list of tables
    
      If conditions_s <> "" Then
        Print #69, "   WHERE " & conditions_s   ' conditions
      End If
     
      Print #69, ""
      Print #69, "   L_count := SQL%ROWCOUNT;"
    End If
    
    If isDDL(mapType_s) = False Then
      ' add the final commit
      Print #69, ""
      Print #69, "   commit;"
    End If

    Call libAutoScript("Close", _
                       mapType_s, _
                       mapName_s, _
                       mapObjectName_s, _
                       filename_s)

    
    Call libIndexSheet
    
    Exit Sub
    
Exception:
    lasterr_s = Err.Source & Chr(13) & Err.Description & " (" & Trim(Str(Err.Number)) & ")."
    MsgBox lasterr_s, 0, c_scriptError

    Resume Next
End Sub 'libGenerateScript()



'Build mapping worksheet for each table on the index tab
Sub libBuildAll()
  Const c_indexOffset = 2
  Dim x, y As Integer
  Dim tableNames() As String

    y = 1
    ReDim tableNames(y)
    Call libCopyCredentials
    For x = 3 To ActiveSheet.Rows.Count
      If ActiveSheet.Cells(x, 1) = "" Then
        Exit For
      End If
 
      tableNames(y) = ActiveSheet.Cells(x, 1)

      ActiveSheet.Cells(x, 1).Hyperlinks.Add Anchor:=ActiveSheet.Cells(x, 1), Address:="", _
            SubAddress:="'" & ActiveSheet.Cells(x, 1).Value & "'" & "!a1", TextToDisplay:=ActiveSheet.Cells(x, 1).Value
      y = y + 1
      ReDim Preserve tableNames(y)
      Next x

      For x = 1 To y - 1
        'MsgBox "Table: " & tableNames(x)
        If Not libMapRow(x + c_indexOffset) Then
          Exit Sub
        End If
        Next x
End Sub 'libBuildAll




